{
    "info": {
        "page": 1, 
        "pages": 39, 
        "totalrecords": 390, 
        "totalrecordsperquery": 10
    }, 
    "records": [
        {
            "id": "4", 
            "lastupdate": "2015-04-28T04:13:46-0400", 
            "name": "adze", 
            "objectcount": 0, 
            "worktypeid": "4"
        }, 
        {
            "id": "11", 
            "lastupdate": "2015-04-28T04:13:46-0400", 
            "name": "ammunition", 
            "objectcount": 0, 
            "worktypeid": "11"
        }, 
        {
            "id": "23", 
            "lastupdate": "2015-04-28T04:13:46-0400", 
            "name": "artists' materials", 
            "objectcount": 0, 
            "worktypeid": "23"
        }, 
        {
            "id": "28", 
            "lastupdate": "2015-04-28T04:13:46-0400", 
            "name": "audiovisual equipment", 
            "objectcount": 0, 
            "worktypeid": "28"
        }, 
        {
            "id": "42", 
            "lastupdate": "2015-04-28T04:13:46-0400", 
            "name": "book page", 
            "objectcount": 0, 
            "worktypeid": "42"
        }, 
        {
            "id": "54", 
            "lastupdate": "2015-04-28T04:13:46-0400", 
            "name": "brochure", 
            "objectcount": 0, 
            "worktypeid": "54"
        }, 
        {
            "id": "59", 
            "lastupdate": "2015-04-28T04:13:46-0400", 
            "name": "buckle", 
            "objectcount": 0, 
            "worktypeid": "59"
        }, 
        {
            "id": "61", 
            "lastupdate": "2015-04-28T04:13:46-0400", 
            "name": "bulloterion", 
            "objectcount": 0, 
            "worktypeid": "61"
        }, 
        {
            "id": "66", 
            "lastupdate": "2015-04-28T04:13:46-0400", 
            "name": "cake server", 
            "objectcount": 0, 
            "worktypeid": "66"
        }, 
        {
            "id": "73", 
            "lastupdate": "2015-04-28T04:13:46-0400", 
            "name": "card case", 
            "objectcount": 0, 
            "worktypeid": "73"
        }
    ]
}